<svg version="1.1" xmlns="http://www.w3.org/2000/svg" id="logo" viewBox="0 0 213 58" xml:space="preserve">

  <path id="logo-square" d="M58,49.8c0,3.4-2.8,6.2-6.3,6.2H6.3C2.8,56,0,53.2,0,49.8V6.2C0,2.8,2.8,0,6.3,0h45.3C55.2,0,58,2.8,58,6.2 V49.8z"/>

  <path id="logo-d" d="M54.3 16.1v23.6c0 7.3-5.2 12.6-11.8 12.6S30.7 47 30.7 39.7s5.2-12.6 11.8-12.6c3.7 0 6.1 1.8 7.5 3.1v2.3c-2.1-2.2-4.3-3.5-7.5-3.5 -4.9 0-9.7 4.5-9.7 10.8s4.8 10.8 9.7 10.8c5.8 0 9.8-5.2 9.8-10.8V16.1H54.3z"/>
    
  <path id="logo-otclear" d="M85.3 39.7c0 6.8-5.3 12.6-12.2 12.6s-12.2-5.8-12.2-12.6 5.3-12.6 12.2-12.6S85.3 32.9 85.3 39.7zM62.9 39.7c0 5.6 4.3 10.8 10.2 10.8 5.9 0 10.2-5.2 10.2-10.8S79 28.9 73.1 28.9C67.1 28.9 62.9 34.1 62.9 39.7zM93.8 27.6h8.6v1.8h-8.6v15.6c0 3.1 1.8 4.9 4.7 4.9h3.9v1.8h-3.5c-4.6 0-7-2.7-7-6.9V21h1.9V27.6zM122.4 29.1h-3.5c-6.2 0-10.4 4.2-10.4 10.3s4.2 10.3 10.4 10.3h3.5v2h-3.6c-7 0-12.3-5-12.3-12.3s5.3-12.3 12.3-12.3h3.6V29.1zM130.5 51.8V16.1h1.9v35.7H130.5zM145.4 43.1L161 32.6c-1.8-2.2-4.6-3.7-7.8-3.7 -6.2 0-10.5 5.2-10.5 10.9 0 5.7 4.5 10.6 10.5 10.6 5.9 0 10.5-4.7 10.6-10.2h2c-0.2 6.4-5.4 12.1-12.2 12.1 -7.5 0-13-5.5-13-12.5 0-6.8 5.1-12.6 12.5-12.6 4.6 0 8.6 2.4 10.8 5.9l-17.3 11.7L145.4 43.1zM191.9 51.8V39.7c0-5.6-4-10.8-9.8-10.8 -4.9 0-9.7 4.5-9.7 10.8s4.8 10.8 9.7 10.8c3.2 0 5.5-1.3 7.5-3.5v2.3c-1.5 1.2-3.8 3.1-7.5 3.1 -6.6 0-11.8-5.3-11.8-12.6s5.2-12.6 11.8-12.6 11.8 5.3 11.8 12.6v12.1H191.9zM201.5 51.8V27.6h1.9v4.6h0.1c1.1-2.4 4-4.6 7.1-4.6h2.2v1.8h-2c-3.8 0-7.4 4-7.4 9.7v12.6H201.5z"/>
    
  <path id="logo-feuille" d="M10.1 22.6c0 0 1.4-9.1 6.5-13.1 5.8-3.3 6.4-0.3 19.2-6.5 0.9 3.2-1.8 13-11.6 18.9C16.7 25.5 10.1 22.6 10.1 22.6z"/>

  <path id="logo-tige" d="M5.4 26.7c0 0 7.1-5.7 14.8-9.6C32.4 10.9 35.6 3.8 35.6 3.8S32 10.4 19.8 16.6C12.1 20.5 5 26.2 5 26.2L5.4 26.7z"/>

</svg>

<!--[if lte IE 8]>
  <img src="../i/dotclear.png">
<![endif]-->
